Pitcher Plant Inquiline Communities
…
```r
# group by plant ID and leaf age, and sum the ant, spider, and beetle columns
grouped_data <- pitcher_plant_data %>%
                  group_by(leaf_age_) %>%
                  summarize(total_organisms = sum(ants, spiders, beetle))
print(grouped_data)
```

```
## # A tibble: 119 × 2
##    leaf_age_ total_organisms
##        <int>           <int>
##  1         0             949
##  2        12             154
##  3        13             345
##  4        14            1448
##  5        16              11
##  6        19             200
##  7        25             338
##  8        28             487
##  9        29             140
## 10        30               0
## # … with 109 more rows
```
…
